Division,WeightClassKg,Place,Name,Team,BodyweightKg,Best3SquatKg,Best3BenchKg,Best3DeadliftKg,TotalKg,Equipment,Event,Sex
Boys,52,1,Ruben Sanchez,Meadow,51.44,113.4,70.31,136.08,319.78,Single-ply,SBD,M
Boys,56,1,Brett Salas,Lubbock Cooper,55.25,149.69,70.31,156.49,376.48,Single-ply,SBD,M
Boys,56,2,Rocky Currie,Wellman-Union,55.57,131.54,81.65,151.95,365.14,Single-ply,SBD,M
Boys,56,3,Zach Gass,Lubbock Cooper,55.7,124.74,74.84,133.81,333.39,Single-ply,SBD,M
Boys,56,4,Garret Day,Lubbock Cooper,55.79,95.25,68.04,115.67,278.96,Single-ply,SBD,M
Boys,56,DQ,Cailer Woolam,Lubbock Cooper,55.57,,,,,Single-ply,SBD,M
Boys,60,1,Joell Lowdermilk,Tahoka,60,136.08,90.72,165.56,392.36,Single-ply,SBD,M
Boys,60,2,Bruno Urbano,Meadow,58.15,115.67,70.31,136.08,322.05,Single-ply,SBD,M
Boys,60,3,Cesar Retana,Meadow,59.33,86.18,49.9,108.86,244.94,Single-ply,SBD,M
Boys,67.5,1,Rico Rocha,Meadow,66.45,192.78,115.67,199.58,508.02,Single-ply,SBD,M
Boys,67.5,2,Michael Prieto,Lubbock Cooper,65.77,167.83,88.45,183.7,439.98,Single-ply,SBD,M
Boys,67.5,3,Nick Aguirre,Tahoka,65.86,151.95,95.25,154.22,401.43,Single-ply,SBD,M
Boys,67.5,4,Chance Cook,Tahoka,64.41,165.56,72.57,158.76,396.89,Single-ply,SBD,M
Boys,67.5,5,Paul Bright,Brownfield,61.42,147.42,72.57,145.15,365.14,Single-ply,SBD,M
Boys,67.5,6,Manuel Castillo,Meadow,64.77,117.93,61.23,149.69,328.85,Single-ply,SBD,M
Boys,67.5,7,Juan Garcia,Meadow,66.86,120.2,72.57,136.08,328.85,Single-ply,SBD,M
Boys,67.5,8,Robby Escobar,Sundown,64.5,108.86,77.11,138.35,324.32,Single-ply,SBD,M
Boys,67.5,DQ,Jairo Castillo,Meadow,62.51,95.25,,,,Single-ply,SBD,M
Boys,75,1,Randy Zamora,Meadow,74.84,183.7,115.67,199.58,498.95,Single-ply,SBD,M
Boys,75,2,Kyle Reno,Tahoka,74.16,156.49,111.13,183.7,451.32,Single-ply,SBD,M
Boys,75,3,Jg Crutcher,Wellman-Union,70.4,154.22,108.86,179.17,442.25,Single-ply,SBD,M
Boys,75,4,Julian Flores,Meadow,70.94,133.81,58.97,154.22,347,Single-ply,SBD,M
Boys,75,5,Kanan Kayasseh,Lubbock Cooper,74.12,111.13,72.57,147.42,331.12,Single-ply,SBD,M
Boys,75,6,Bryan Pena,Tahoka,73.26,115.67,81.65,124.74,322.05,Single-ply,SBD,M
Boys,82.5,1,Bryan Vela,Meadow,76.29,170.1,104.33,219.99,494.42,Single-ply,SBD,M
Boys,82.5,2,Chase Smith,Meadow,76.43,183.7,115.67,190.51,489.88,Single-ply,SBD,M
Boys,82.5,3,Jamie Bingham,Tahoka,78.2,181.44,108.86,192.78,483.08,Single-ply,SBD,M
Boys,82.5,4,Lee Gamez,Brownfield,80.83,147.42,95.25,147.42,390.09,Single-ply,SBD,M
Boys,82.5,5,Dakota Moody,Sundown,81.37,142.88,97.52,140.61,381.02,Single-ply,SBD,M
Boys,82.5,6,Daniel Paiva,Brownfield,81.83,124.74,90.72,147.42,362.87,Single-ply,SBD,M
Boys,82.5,7,Bryce McHam,Sundown,80.65,131.54,77.11,131.54,340.19,Single-ply,SBD,M
Boys,82.5,DQ,Pete Munoz,Brownfield,76.48,147.42,,,,Single-ply,SBD,M
Boys,90,1,Richie Allen,Wellman-Union,83.46,190.51,106.59,199.58,496.68,Single-ply,SBD,M
Boys,90,2,Tim Bergara,Brownfield,89.36,170.1,124.74,181.44,476.27,Single-ply,SBD,M
Boys,90,3,Spencer Chance,Sundown,85.5,149.69,106.59,192.78,449.06,Single-ply,SBD,M
Boys,90,4,Trevor Priest,Sundown,86.86,142.88,108.86,181.44,433.18,Single-ply,SBD,M
Boys,90,5,Sammy Sambrano,Brownfield,89.58,154.22,97.52,158.76,410.5,Single-ply,SBD,M
Boys,90,6,Ralph Kennedy,Lubbock Cooper,84.64,145.15,95.25,156.49,396.89,Single-ply,SBD,M
Boys,90,7,Devin Elmore,Sundown,82.74,147.42,102.06,140.61,390.09,Single-ply,SBD,M
Boys,90,8,Ryan Cruz,Meadow,83.64,115.67,68.04,115.67,299.37,Single-ply,SBD,M
Boys,90,9,Caleb Vaught,Sundown,89.9,99.79,77.11,117.93,294.84,Single-ply,SBD,M
Boys,90,10,Adrian Marinelarena,Sundown,87.63,70.31,61.23,90.72,222.26,Single-ply,SBD,M
Boys,90,DQ,Ruben Rodriguez,Brownfield,90,,,,,Single-ply,SBD,M
Boys,100,1,Filberto Jaquez,Lubbock Cooper,97.7,199.58,131.54,170.1,501.22,Single-ply,SBD,M
Boys,100,2,John Tillery,Lubbock Cooper,95.07,179.17,102.06,181.44,462.66,Single-ply,SBD,M
Boys,100,3,Michael Serna,Sundown,91.4,158.76,113.4,165.56,437.72,Single-ply,SBD,M
Boys,100,4,Andrew Clayman,Brownfield,99.06,181.44,92.99,163.29,437.72,Single-ply,SBD,M
Boys,100,5,Daniel Carmona,Brownfield,93.53,158.76,88.45,165.56,412.77,Single-ply,SBD,M
Boys,100,6,Eddie Aguirre,Brownfield,95.8,136.08,79.38,131.54,347,Single-ply,SBD,M
Boys,110,1,Joey Elizardo,Brownfield,107.68,226.8,140.61,231.33,598.74,Single-ply,SBD,M
Boys,110,2,Elvis Calvillo,Lubbock Cooper,103.96,172.37,122.47,181.44,476.27,Single-ply,SBD,M
Boys,110,3,Bryan Lovington,Meadow,104.05,136.08,81.65,165.56,383.29,Single-ply,SBD,M
Boys,110,DQ,Ashton Lara,Lubbock Cooper,106.05,,,,,Single-ply,SBD,M
Boys,125,1,Nick Gonzales,Lubbock Cooper,117.12,208.65,127.01,185.97,521.63,Single-ply,SBD,M
Boys,125+,1,Dillon Beesinger,Lubbock Cooper,141.07,244.94,149.69,208.65,603.28,Single-ply,SBD,M
Boys,125+,2,Luke Moore,Lubbock Cooper,136.26,217.72,136.08,215.46,569.26,Single-ply,SBD,M
Boys,125+,3,Byron Lara,Lubbock Cooper,128.37,188.24,136.08,185.97,510.29,Single-ply,SBD,M
Boys,125+,4,Roman Taylor,Sundown,136.26,185.97,92.99,158.76,437.72,Single-ply,SBD,M
Boys,125+,DQ,Josh Balderrama,Brownfield,139.03,204.12,,,,Single-ply,SBD,M
