Place,Name,CyrillicName,Country,BodyweightKg,Bench1Kg,Bench2Kg,Bench3Kg,Bench4Kg,Deadlift1Kg,Deadlift2Kg,Deadlift3Kg,Deadlift4Kg,TotalKg,WeightClassKg,Division,Sex,Event,Equipment,Best3BenchKg,Best3DeadliftKg,BirthYear
1,Pavlo Parnak,Павло Парнак,Ukraine,48,65,-70,70,,100,110,120,,190,48,Pro Teen 16-17,M,BD,Raw,70,120,1996
1,Valentin Litvechenko,Валентин Літвеченко,Ukraine,53.7,45,55,-60,,80,90,95,,150,56,Pro Teen 16-17,M,BD,Raw,55,95,1996
1,Maksim Karasov,Максим Карасьов,Ukraine,71,90,-100,-100,,160,170,180,,270,75,Pro Teen 16-17,M,BD,Raw,90,180,1997
1,Denis Fesenko,Денис Фесенко,Ukraine,85.8,140,145,-147.5,,215,-225,225,,370,90,Pro Juniors 20-23,M,BD,Raw,145,225,1984
2,Mikhail Charnusevich,,Belarus,90,-125,125,-130,,220,230,-240,,355,90,Pro Juniors 20-23,M,BD,Raw,125,230,1992
1,Ruslan Dragun,,Belarus,74.7,145,-150,-150,,220,230,235,,380,75,Pro Open,M,BD,Raw,145,235,1989
DQ,Dmitro Cherkay,Дмитро Черкай,Ukraine,71.7,-150,-150,,,-230,,,,,75,Pro Open,M,BD,Raw,,,1985
1,Dzianis Zahnibarada,,Belarus,88.9,132.5,140,145,,242.5,252.5,-260,,397.5,90,Pro Open,M,BD,Raw,145,252.5,1981
2,Vyacheslav Glushpenko,Вячеслав Глушпенко,Ukraine,88.6,137.5,-142.5,142.5,,235,240,-242.5,,382.5,90,Pro Open,M,BD,Raw,142.5,240,1980
3,Denis Fesenko,Денис Фесенко,Ukraine,85.8,140,145,-147.5,,215,-225,225,,370,90,Pro Open,M,BD,Raw,145,225,1984
4,Konstyantin Sarosika,Констянтин Саросика,Ukraine,86.2,120,-130,-130,,230,245,-252.5,,365,90,Pro Open,M,BD,Raw,120,245,1987
5,Mikhail Charnusevich,,Belarus,90,-125,125,-130,,220,230,-240,,355,90,Pro Open,M,BD,Raw,125,230,1992
1,Vladislav Kuzmishchev,Владислав Кузьміщев,Ukraine,100,160,-180,180,,250,265,-300,,445,100,Pro Open,M,BD,Raw,180,265,1983
2,Viktor Galabir,Віктор Галабір,Ukraine,98.6,145,155,-160,,240,252.5,260,,415,100,Pro Open,M,BD,Raw,155,260,1974
1,Andriy Mironov,Андрій Миронов,Ukraine,108.1,160,170,-180,,250,-262.5,-262.5,,420,110,Pro Open,M,BD,Raw,170,250,1982
2,Yuriy Shershnev,Юрій Шершнєв,Ukraine,109.8,120,127.5,135,,160,180,200,,335,110,Pro Open,M,BD,Raw,135,200,1983
3,Pavlo Kipnyak,Павло Кіпняк,Ukraine,104.5,145,-150,150,,160,170,180,,330,110,Pro Open,M,BD,Raw,150,180,1969
1,Andriy Goncharuk,Андрій Гончарук,Ukraine,112,160,170,180,,300,310,-320,,490,125,Pro Open,M,BD,Raw,180,310,1988
1,Andriy Grin,Андрій Гринь,Ukraine,129.4,190,200,-205,,280,300,312.5,,512.5,140,Pro Open,M,BD,Raw,200,312.5,1968
2,Oleksandr Kalkutin,Олександр Калкутін,Ukraine,132.8,175,185,190,,220,235,,,425,140,Pro Open,M,BD,Raw,190,235,1965
1,Vyacheslav Glushpenko,Вячеслав Глушпенко,Ukraine,88.6,137.5,-142.5,142.5,,235,240,-242.5,,382.5,90,Pro Submasters 33-39,M,BD,Raw,142.5,240,1980
1,Pavlo Kipnyak,Павло Кіпняк,Ukraine,104.5,145,-150,150,,160,170,180,,330,110,Pro Masters 40-44,M,BD,Raw,150,180,1969
1,Andriy Grin,Андрій Гринь,Ukraine,129.4,190,200,-205,,280,300,312.5,,512.5,140,Pro Masters 40-44,M,BD,Raw,200,312.5,1968
1,Dmitro Kabakov,Дмитро Кабаков,Ukraine,85.3,120,125,-130,,177.5,185,190,,315,90,Pro Masters 45-49,M,BD,Raw,125,190,1963
1,Yuriy Maligin,Юрій Малигін,Ukraine,102.5,100,115,122.5,,120,140,160,,282.5,110,Pro Masters 45-49,M,BD,Raw,122.5,160,1967
1,Oleksandr Kalkutin,Олександр Калкутін,Ukraine,132.8,175,185,190,,220,235,,,425,140,Pro Masters 45-49,M,BD,Raw,190,235,1965
1,Lyudmila Tsvetkova,Людмила Цветкова,Ukraine,55,50,55,-57.5,,115,127.5,-142.5,,182.5,56,Pro Masters 50-54,F,BD,Raw,55,127.5,1961
DQ,Maksim Fesun,Максим Фесун,Ukraine,,,,,,,,,,,100,Pro Teen 18-19,M,BD,Multi-ply,,,1995
1,Oleksandr Levchenko,Олександр Левченко,Ukraine,81.2,-160,160,170,,-200,205,-220,,375,82.5,Pro Juniors 20-23,M,BD,Multi-ply,170,205,1992
1,Arkadiy Shalokha,Аркадий Шалоха,Ukraine,75.3,-225,230,-245,,285,295,-302.5,,525,82.5,Pro Open,M,BD,Multi-ply,230,295,1983
1,Pavlo Parnak,Павло Парнак,Ukraine,48,65,-70,70,,,,,,70,48,Pro Teen 16-17,M,B,Raw,70,,1996
1,Oleg Ogli,Олег Огли,Ukraine,65.8,-90,90,-100,,,,,,90,67.5,Pro Teen 16-17,M,B,Raw,90,,1996
1,Volodimir Kolisnik,Володимир Колісник,Ukraine,71,125,132.5,-140,,,,,,132.5,75,Pro Teen 16-17,M,B,Raw,132.5,,1997
DQ,Rostislav Kim,Ростислав Кім,Ukraine,85,,,,,,,,,,90,Pro Teen 16-17,M,B,Raw,,,1996
DQ,Maksim Stolyarenko,Максим Столяренко,Ukraine,88,,,,,,,,,,90,Pro Teen 16-17,M,B,Raw,,,1995
1,Vasil Protsukovich,Василь Процукович,Ukraine,95.7,160,165,170,,,,,,170,100,Pro Teen 16-17,M,B,Raw,170,,1995
1,Vladislav Kovalenko,Владислав Коваленко,Ukraine,78.9,110,120,125,,,,,,125,82.5,Pro Teen 18-19,M,B,Raw,125,,1995
1,Oleksandr Krikun,Олександр Крикун,Ukraine,67,125,132.5,137.5,,,,,,137.5,67.5,Pro Juniors 20-23,M,B,Raw,137.5,,1990
DQ,Evgen Kovalenko,Євген Коваленко,Ukraine,78.1,-130,-130,,,,,,,,82.5,Pro Juniors 20-23,M,B,Raw,,,1992
1,Evgen Nastenko,Євген Настенко,Ukraine,98,155,162.5,-170,,,,,,162.5,100,Pro Juniors 20-23,M,B,Raw,162.5,,1991
DQ,Maksim Fedotov,Максим Федотов,Ukraine,93,160,,,,,,,,,100,Pro Juniors 20-23,M,B,Raw,160,,1991
1,Valentin Kazmirenko,Валентин Казьміренко,Ukraine,107.7,170,180,-192.5,,,,,,180,110,Pro Juniors 20-23,M,B,Raw,180,,1991
1,Anatoliy Mar'Enkov,Анатолій Мар'Єнков,Ukraine,65.3,100,110,-125,,,,,,110,67.5,Pro Open,M,B,Raw,110,,1988
1,Oleg Mikhaylenko,Олег Михайленко,Ukraine,78.8,155,160,-167.5,,,,,,160,82.5,Pro Open,M,B,Raw,160,,1985
2,Sergiy Chereshnev,Сергій Черешнєв,Ukraine,82.3,160,-167.5,-167.5,,,,,,160,82.5,Pro Open,M,B,Raw,160,,1978
3,Maksim Kolodyazhniy,Максим Колодяжний,Ukraine,78.3,110,120,-125,,,,,,120,82.5,Pro Open,M,B,Raw,120,,1987
1,Roman Shportko,Роман Шпортко,Ukraine,85.3,170,180,202.5,,,,,,202.5,90,Pro Open,M,B,Raw,202.5,,1989
2,Arkadiy Medved,Аркадій Медведь,Ukraine,89.6,190,197.5,-202.5,,,,,,197.5,90,Pro Open,M,B,Raw,197.5,,1982
3,Konstyantin Avramchuk,Констянтин Аврамчук,Ukraine,87.3,-95,-95,100,,,,,,100,90,Pro Open,M,B,Raw,100,,1988
1,Sergiy Samoylov,Сергій Самойлов,Ukraine,97.5,200,210,-215,,,,,,210,100,Pro Open,M,B,Raw,210,,1989
1,Yaroslav Bogdan,Ярослав Богдан,Ukraine,101.6,165,172.5,180,,,,,,180,110,Pro Open,M,B,Raw,180,,1987
2,Andriy Mironov,Андрій Миронов,Ukraine,108.1,160,170,-180,,,,,,170,110,Pro Open,M,B,Raw,170,,1982
1,Andriy Grin,Андрій Гринь,Ukraine,129.4,190,200,-205,,,,,,200,140,Pro Open,M,B,Raw,200,,1968
1,Dmytro Solovyov,Дмитро Соловйов,Ukraine,62.9,105,115,117.5,,,,,,117.5,67.5,Pro Submasters 33-39,M,B,Raw,117.5,,1979
1,Oleksandr Zhariy,Олександр Жарий,Ukraine,59,120,125,127.5,,,,,,127.5,60,Pro Masters 40-44,M,B,Raw,127.5,,1972
1,Temur Yuldashev,Темур Юлдашев,Ukraine,98.9,185,192.5,195,,,,,,195,100,Pro Masters 40-44,M,B,Raw,195,,1969
1,Andriy Grin,Андрій Гринь,Ukraine,129.4,190,200,-205,,,,,,200,140,Pro Masters 40-44,M,B,Raw,200,,1968
1,Roman Perevyazko,Роман Перевязко,Ukraine,93.5,115,120,125,,,,,,125,100,Pro Masters 45-49,M,B,Raw,125,,1968
1,Yuriy Maligin,Юрій Малигін,Ukraine,102.5,100,115,122.5,,,,,,122.5,110,Pro Masters 45-49,M,B,Raw,122.5,,1967
1,Mikola Yurchuk,Микола Юрчук,Ukraine,127.1,175,185,190,,,,,,190,140,Pro Masters 45-49,M,B,Raw,190,,1964
1,Mikhaylo Geenko,Михайло Геєнко,Ukraine,107.7,157.5,162.5,167.5,,,,,,167.5,110,Pro Masters 50-54,M,B,Raw,167.5,,1963
1,Evgen Kurudimov,Євген Курудімов,Ukraine,98.5,135,-145,145,,,,,,145,100,Pro Masters 55-59,M,B,Raw,145,,1956
2,Oleksiy Khromenkov,Олексій Хроменков,Ukraine,96,105,,,,,,,,105,100,Pro Masters 55-59,M,B,Raw,105,,1957
1,Gennadiy Vasilev,Геннадій Васильєв,Ukraine,72.4,105,112.5,-115,,,,,,112.5,75,Pro Masters 60-64,M,B,Raw,112.5,,1952
1,Vyacheslav Tsiganok,Вячеслав Циганок,Ukraine,99.8,125,132.5,140,,,,,,140,100,Pro Masters 70-74,M,B,Raw,140,,1938
1,Sergiy Chereshnev,Сергій Черешнєв,Ukraine,82.3,160,-167.5,-167.5,,,,,,160,82.5,Pro Military/Fire/Police,M,B,Raw,160,,1978
1,Temur Yuldashev,Темур Юлдашев,Ukraine,98.9,185,192.5,195,,,,,,195,100,Pro Military/Fire/Police,M,B,Raw,195,,1969
DQ,Katerina Glushchenko,Катерина Глущенко,Ukraine,65,60,,,,,,,,,67.5,Pro Teen 16-17,F,B,Raw,60,,1997
1,Olga Grabovska,Ольга Грабовська,Ukraine,57.1,40,42.5,-45,,,,,,42.5,60,Pro Open,F,B,Raw,42.5,,1976
1,Nataliya Penkova,Наталія Пенькова,Ukraine,65.2,35,42.5,47.5,,,,,,47.5,67.5,Pro Masters 45-49,F,B,Raw,47.5,,1965
1,Lyudmila Tsvetkova,Людмила Цветкова,Ukraine,55,50,55,-57.5,,,,,,55,56,Pro Masters 50-54,F,B,Raw,55,,1961
1,Olga Grabovska,Ольга Грабовська,Ukraine,57.1,40,42.5,-45,,,,,,42.5,60,Pro Military/Fire/Police,F,B,Raw,42.5,,1976
1,Dmitro Lomeyko,Дмитро Ломейко,Ukraine,91.7,240,-255,,,,,,,240,100,Pro Open,M,B,Multi-ply,240,,1983
2,Denis Borodenko,Денис Бороденко,Ukraine,94.6,-225,-225,225,,,,,,225,100,Pro Open,M,B,Multi-ply,225,,1981
DQ,Konstyantin Martinenko,Констянтин Мартиненко,Ukraine,104.1,-210,-210,-210,,,,,,,110,Pro Open,M,B,Multi-ply,,,1984
1,Efim Stepatskiy,Єфим Степацький,Ukraine,110.1,240,,,,,,,,240,125,Pro Open,M,B,Multi-ply,240,,1987
1,Roman Perevyazko,Роман Перевязко,Ukraine,93.5,145,-160,-160,,,,,,145,100,Pro Masters 45-49,M,B,Multi-ply,145,,1968
1,Yuriy Maligin,Юрій Малигін,Ukraine,102.5,150,-160,-160,,,,,,150,110,Pro Masters 45-49,M,B,Multi-ply,150,,1967
1,Vyacheslav Tsiganok,Вячеслав Циганок,Ukraine,99.8,150,-160,,,,,,,150,100,Pro Masters 70-74,M,B,Multi-ply,150,,1938
1,Maksim Karasov,Максим Карасьов,Ukraine,71,,,,,160,170,180,,180,75,Pro Teen 16-17,M,D,Raw,,180,1997
1,Oleksandr Moshchanets,Олександр Мощанець,Ukraine,73.3,,,,,150,170,-180,,170,75,Pro Teen 18-19,M,D,Raw,,170,1995
1,Mikhail Charnusevich,,Belarus,90,,,,,220,230,-240,,230,90,Pro Juniors 20-23,M,D,Raw,,230,1992
1,Oleksandr Biliy,Олександр Білий,Ukraine,114.1,,,,,-280,280,307.5,,307.5,125,Pro Juniors 20-23,M,D,Raw,,307.5,1990
1,Dzianis Zahnibarada,,Belarus,88.9,,,,,242.5,252.5,-260,,252.5,90,Pro Open,M,D,Raw,,252.5,1981
2,Konstyantin Sarosika,Констянтин Саросика,Ukraine,86.2,,,,,230,245,-252.5,,245,90,Pro Open,M,D,Raw,,245,1987
3,Mikhail Charnusevich,,Belarus,90,,,,,220,230,-240,,230,90,Pro Open,M,D,Raw,,230,1992
4,Denis Fesenko,Денис Фесенко,Ukraine,85.9,,,,,220,-225,225,,225,90,Pro Open,M,D,Raw,,225,1984
1,Viktor Galabir,Віктор Галабір,Ukraine,98.6,,,,,240,252.5,260,,260,100,Pro Open,M,D,Raw,,260,1974
2,Kirilo Potapov,Кирило Потапов,Ukraine,98.5,,,,,220,230,-240,,230,100,Pro Open,M,D,Raw,,230,1982
1,Rostislav Lisnyak,Ростислав Лісняк,Ukraine,108.9,,,,,280,292.5,-300,,292.5,110,Pro Open,M,D,Raw,,292.5,1984
2,Evgen Tkachenko,Євген Ткаченко,Ukraine,101.3,,,,,230,245,262.5,,262.5,110,Pro Open,M,D,Raw,,262.5,1980
3,Andriy Mironov,Андрій Миронов,Ukraine,108.1,,,,,250,-262.5,-262.5,,250,110,Pro Open,M,D,Raw,,250,1982
4,Oleksandr Uzhitskiy,Олександр Ужицький,Ukraine,103.5,,,,,220,237.5,-250,,237.5,110,Pro Open,M,D,Raw,,237.5,1987
1,Andriy Goncharuk,Андрій Гончарук,Ukraine,112,,,,,300,310,-320,,310,125,Pro Open,M,D,Raw,,310,1988
1,Andriy Grin,Андрій Гринь,Ukraine,129.4,,,,,280,300,312.5,,312.5,140,Pro Open,M,D,Raw,,312.5,1968
1,Andriy Grin,Андрій Гринь,Ukraine,129.4,,,,,280,300,312.5,,312.5,140,Pro Masters 40-44,M,D,Raw,,312.5,1968
1,Kirilo Potapov,Кирило Потапов,Ukraine,98.5,,,,,220,230,-240,,230,100,Pro Military/Fire/Police,M,D,Raw,,230,1982
1,Sergiy Palienko,Сергій Палієнко,Ukraine,94.8,,,,,250,262.5,270,,270,100,Pro Open,M,D,Multi-ply,,270,1987
1,Yuriy Maligin,Юрій Малигін,Ukraine,102.5,,,,,170,185,200,,200,110,Pro Masters 45-49,M,D,Multi-ply,,200,1967
1,Dmitro Zaets,Дмитро Заєць,Ukraine,33.6,35,-37.5,-37.5,,80,90,-95,,125,44,Amateur Children 10,M,BD,Raw,35,90,2002
1,Dmitro Boronnikov,Дмитро Боронніков,Ukraine,51,30,32.5,-35,,75,80,-82.5,,112.5,52,Amateur Children 10,M,BD,Raw,32.5,80,2002
1,Mikita Kravets,Микита Кравець,Ukraine,49.2,60,65,-67.5,,97.5,107.5,110,,175,52,Amateur Teen 13-15,M,BD,Raw,65,110,2000
1,Vladislav Sklyarov,Владислав Скляров,Ukraine,67.4,82.5,-90,-90,,132.5,140,-145,,222.5,67.5,Amateur Teen 13-15,M,BD,Raw,82.5,140,1998
1,Dmitro Nastekhin,Дмитро Настехін,Ukraine,69.1,82.5,90,92.5,,125,132.5,137.5,,230,75,Amateur Teen 13-15,M,BD,Raw,92.5,137.5,1997
1,Dmitro Badenko,Дмитро Баденко,Ukraine,79.5,75,85,-92.5,,120,130,-135,,215,82.5,Amateur Teen 13-15,M,BD,Raw,85,130,1998
2,Igor Lisenko,Ігор Лисенко,Ukraine,82.4,60,-65,65,,120,130,140,,205,82.5,Amateur Teen 13-15,M,BD,Raw,65,140,2000
1,Vladislav Polivko,Владислав Поливко,Ukraine,92.4,90,100,-110,,140,150,160,,260,100,Amateur Teen 13-15,M,BD,Raw,100,160,1998
1,Vitaliy Muzika,Віталій Музика,Ukraine,66.4,102.5,107.5,110,,182.5,190,200,,310,67.5,Amateur Teen 16-17,M,BD,Raw,110,200,1995
2,Anton Voykov,Антон Войков,Ukraine,66.8,85,90,-95,,160,175,,,265,67.5,Amateur Teen 16-17,M,BD,Raw,90,175,1996
3,Miroslav Dryagin,Мирослав Дрягін,Ukraine,62.8,87.5,92.5,-97.5,,120,-127.5,127.5,,220,67.5,Amateur Teen 16-17,M,BD,Raw,92.5,127.5,1997
1,Evgeniy Golub,Євгеній Голуб,Ukraine,71.9,75,82.5,87.5,,130,145,-157.5,,232.5,75,Amateur Teen 16-17,M,BD,Raw,87.5,145,1996
2,Vladislav Neshcheret,Владислав Нещерет,Ukraine,68.7,70,80,85,,135,145,-157.5,,230,75,Amateur Teen 16-17,M,BD,Raw,85,145,1997
1,Oleksandr Lushchinskiy,Олександр Лущинський,Ukraine,85.6,90,95,100,,175,185,195,,295,90,Amateur Teen 16-17,M,BD,Raw,100,195,1996
1,Andriy Karaban,Андрій Карабан,Ukraine,95.1,125,130,135,,-222.5,-232.5,232.5,,367.5,100,Amateur Teen 16-17,M,BD,Raw,135,232.5,1997
2,Dmitro Grigorev,Дмитро Григорьєв,Ukraine,92.8,102.5,107.5,112.5,,172.5,182.5,190,,302.5,100,Amateur Teen 16-17,M,BD,Raw,112.5,190,1997
1,Maksim Markevich,Максим Маркевич,Ukraine,67.5,90,95,-100,,160,-175,-175,,255,67.5,Amateur Teen 18-19,M,BD,Raw,95,160,1994
2,Yaroslav Kalugin,Ярослав Калугін,Ukraine,61,75,-80,-80,,165,175,-180,,250,67.5,Amateur Teen 18-19,M,BD,Raw,75,175,1994
1,Yuriy Mar'Yanovskiy,Юрій Мар'яновський,Ukraine,80.7,120,-127.5,-132.5,,210,225,232.5,,352.5,82.5,Amateur Teen 18-19,M,BD,Raw,120,232.5,1995
2,Maksim Ribalka,Максим Рибалка,Ukraine,82.5,115,120,-122.5,,170,180,190,,310,82.5,Amateur Teen 18-19,M,BD,Raw,120,190,1993
1,Dmitro Klimenko,Дмитро Клименко,Ukraine,88.2,120,130,-140,,185,205,227.5,,357.5,90,Amateur Teen 18-19,M,BD,Raw,130,227.5,1995
2,Yuriy Masloyan,Юрій Маслоян,Ukraine,88.4,125,132.5,137.5,,185,202.5,-210,,340,90,Amateur Teen 18-19,M,BD,Raw,137.5,202.5,1994
1,Sergiy Maymur,Сергій Маймур,Ukraine,58.1,50,55,60,,100,-110,120,,180,60,Amateur Juniors 20-23,M,BD,Raw,60,120,1993
1,Oleksiy Gorniy,Олексій Горний,Ukraine,63.8,105,110,-115,,160,165,,,275,67.5,Amateur Juniors 20-23,M,BD,Raw,110,165,1992
1,Dmitro Nikolaenko,Дмитро Ніколаєнко,Ukraine,73.3,120,130,-135,,162.5,180,190,,320,75,Amateur Juniors 20-23,M,BD,Raw,130,190,1989
2,Igor Kulikovskiy,Ігор Куліковський,Ukraine,72.3,110,115,122.5,,170,185,195,,317.5,75,Amateur Juniors 20-23,M,BD,Raw,122.5,195,1990
3,Andriy Pikalov,Андрій Пікалов,Ukraine,73.2,110,-117.5,-117.5,,170,180,,,290,75,Amateur Juniors 20-23,M,BD,Raw,110,180,1993
1,Eldar Efimenko,Ельдар Єфименко,Ukraine,82.5,107.5,112.5,117.5,,195,205,210,,327.5,82.5,Amateur Juniors 20-23,M,BD,Raw,117.5,210,1992
1,Andriy Korpusenko,Андрій Корпусенко,Ukraine,87.3,105,110,-112.5,,185,-190,190,,300,90,Amateur Juniors 20-23,M,BD,Raw,110,190,1991
2,Georgiy Kulakov,Георгій Кулаков,Ukraine,87.7,125,132.5,137.5,,150,157.5,162.5,,300,90,Amateur Juniors 20-23,M,BD,Raw,137.5,162.5,1989
3,Vitaliy Maksimchuk,Віталій Максимчук,Ukraine,88.1,110,115,-120,,170,175,185,,300,90,Amateur Juniors 20-23,M,BD,Raw,115,185,1992
4,Volodimir Tsurko,Володимир Цурко,Ukraine,88.2,-115,-120,120,,180,-190,-195,,300,90,Amateur Juniors 20-23,M,BD,Raw,120,180,1993
1,Andriy Shchetinin,Андрій Щетінін,Ukraine,92.7,140,150,155,,240,260,275,,430,100,Amateur Juniors 20-23,M,BD,Raw,155,275,1990
2,Danilo Udovik,Данило Удовик,Ukraine,94.8,102.5,107.5,112.5,,160,175,182.5,,295,100,Amateur Juniors 20-23,M,BD,Raw,112.5,182.5,1992
1,Oleg Omelyanenko,Олег Омельяненко,Ukraine,101.6,140,147.5,-152.5,,-185,195,205,,352.5,110,Amateur Juniors 20-23,M,BD,Raw,147.5,205,1993
1,Dmitro Zaets,Дмитро Заєць,Ukraine,33.6,35,-37.5,-37.5,,80,90,-95,,125,44,Amateur Open,M,BD,Raw,35,90,2002
1,Mikita Kravets,Микита Кравець,Ukraine,49.2,60,65,-67.5,,97.5,107.5,110,,175,52,Amateur Open,M,BD,Raw,65,110,2000
1,Vitaliy Muzika,Віталій Музика,Ukraine,66.4,102.5,107.5,110,,182.5,190,200,,310,67.5,Amateur Open,M,BD,Raw,110,200,1995
2,Vladislav Sklyarov,Владислав Скляров,Ukraine,67.4,82.5,-90,-90,,132.5,140,-145,,222.5,67.5,Amateur Open,M,BD,Raw,82.5,140,1998
1,Sergiy Koblitskiy,Сергій Коблицький,Ukraine,72.3,135,142.5,147.5,,215,240,250,,397.5,75,Amateur Open,M,BD,Raw,147.5,250,1987
2,Sergiy Kazantsev,Сергій Казанцев,Ukraine,72.4,100,-110,,,125,140,150,,250,75,Amateur Open,M,BD,Raw,100,150,1983
1,Yaroslav Litvinenko,Ярослав Литвиненко,Ukraine,81.8,130,140,145,,230,245,-255,,390,82.5,Amateur Open,M,BD,Raw,145,245,1976
2,Volodimir Kirsa,Володимир Кірса,Ukraine,81,125,132.5,137.5,,180,202.5,210,,347.5,82.5,Amateur Open,M,BD,Raw,137.5,210,1986
3,Andriy Nazipov,Андрій Назіпов,Ukraine,80,100,-105,105,,-150,150,160,,265,82.5,Amateur Open,M,BD,Raw,105,160,1978
1,Sergiy Karas,Сергій Карась,Ukraine,87.1,125,132.5,-137.5,,200,-220,240,,372.5,90,Amateur Open,M,BD,Raw,132.5,240,1986
2,Denis Kovalenko,Денис Коваленко,Ukraine,85,125,130,-135,,220,230,-240,,360,90,Amateur Open,M,BD,Raw,130,230,1982
3,Andriy Nesevrya,Андрій Несевря,Ukraine,86.5,115,120,-125,,180,195,212.5,,332.5,90,Amateur Open,M,BD,Raw,120,212.5,1988
4,Oleksandr Minaev,Олександр Мінаєв,Ukraine,87.2,125,-130,-130,,-170,190,,,315,90,Amateur Open,M,BD,Raw,125,190,1982
5,Oleksandr Kharchenko,Олександр Харченко,Ukraine,88.8,-105,105,110,,180,190,-205,,300,90,Amateur Open,M,BD,Raw,110,190,1987
1,Artem Medvedev,Артем Медведєв,Ukraine,93.5,140,-147.5,-147.5,,180,192.5,200,,340,100,Amateur Open,M,BD,Raw,140,200,1990
DQ,Denis Feklistov,Денис Феклістов,Ukraine,97.3,-140,-140,-140,,-200,,,,,100,Amateur Open,M,BD,Raw,,,1986
1,Sergiy Bessel,Сергій Бессель,Ukraine,106.7,165,172.5,-180,,240,257.5,262.5,,435,110,Amateur Open,M,BD,Raw,172.5,262.5,1984
2,Artem Prisyazhniy,Артем Присяжний,Ukraine,107.2,155,-160,-160,,260,272.5,280,,435,110,Amateur Open,M,BD,Raw,155,280,1981
DD,Vitaliy Alekseev,Віталій Алексеєв,Ukraine,103.3,165,175,185,,300,320,335,,,110,Amateur Open,M,BD,Raw,185,335,1988
1,Rodion Kuprin,Родіон Купрін,Ukraine,119.5,170,182.5,-185,,230,240,,,422.5,125,Amateur Open,M,BD,Raw,182.5,240,1981
1,Volodimir Lesnyak,Володимир Лесняк,Ukraine,108.9,130,145,-155,,190,212.5,220,,365,110,Amateur Submasters 33-39,M,BD,Raw,145,220,1977
1,Mikhaylo Sizikh,Михайло Сізих,Ukraine,80.1,110,115,-117.5,,130,135,-140,,250,82.5,Amateur Masters 50-54,M,BD,Raw,115,135,1962
1,Yuriy Khanov,Юрій Ханов,Ukraine,99.7,115,120,125,,200,207.5,222.5,,347.5,100,Amateur Masters 50-54,M,BD,Raw,125,222.5,1962
1,Oleksandr Minaev,Олександр Мінаєв,Ukraine,87.2,125,-130,-130,,-170,190,,,315,90,Amateur Military/Fire/Police,M,BD,Raw,125,190,1982
2,Oleksandr Kharchenko,Олександр Харченко,Ukraine,88.8,-105,105,110,,180,190,-205,,300,90,Amateur Military/Fire/Police,M,BD,Raw,110,190,1987
1,Oleksandr Shcherban,Олександр Щербань,Ukraine,107.6,137.5,-142.5,-142.5,,200,210,215,,352.5,110,Amateur Military/Fire/Police,M,BD,Raw,137.5,215,1974
1,Yuliya Gamurar,Юлія Гамурар,Ukraine,59.5,57.5,-62.5,-62.5,,70,,,,127.5,60,Amateur Teen 13-15,F,BD,Raw,57.5,70,1998
1,Irina Galabir,Ірина Галабір,Ukraine,50.7,37.5,42.5,-45,,80,90,,,132.5,52,Amateur Teen 16-17,F,BD,Raw,42.5,90,1995
1,Evgeniya Mosienko,Євгенія Мосієнко,Ukraine,46.7,35,40,42.5,-45,72.5,-82.5,-82.5,,115,48,Amateur Juniors 20-23,F,BD,Raw,42.5,72.5,1992
1,Alona Cheban,Альона Чебан,Ukraine,55.8,40,45,47.5,,100,117.5,120,,167.5,56,Amateur Juniors 20-23,F,BD,Raw,47.5,120,1990
2,Tetyana Novikova,Тетяна Новікова,Ukraine,55.2,32.5,37.5,-40,,72.5,77.5,82.5,,120,56,Amateur Juniors 20-23,F,BD,Raw,37.5,82.5,1990
1,Anzhela Avvakumova,Анжела Аввакумова,Ukraine,47.9,40,45,-47.5,,80,85,-90,,130,48,Amateur Open,F,BD,Raw,45,85,1989
DQ,Tetyana Degtyar,Тетяна Дегтяр,Ukraine,54.9,-57.5,-57.5,-57.5,,-115,,,,,56,Amateur Open,F,BD,Raw,,,1987
1,Yuliya Gamurar,Юлія Гамурар,Ukraine,59.5,57.5,-62.5,-62.5,,70,,,,127.5,60,Amateur Open,F,BD,Raw,57.5,70,1998
1,Olga Morozova,Ольга Морозова,Ukraine,59.1,42.5,-45,-45,,85,87.5,-90,,130,60,Amateur Submasters 33-39,F,BD,Raw,42.5,87.5,1976
1,Yaroslav Skakunov,Ярослав Скакунов,Ukraine,81.1,95,102.5,-110,,170,180,-200,,282.5,82.5,Amateur Teen 16-17,M,BD,Multi-ply,102.5,180,1995
1,Sergiy Kachan,Сергій Качан,Ukraine,63.3,-105,105,-112.5,,190,200,-210,,305,67.5,Amateur Open,M,BD,Multi-ply,105,200,1989
1,Anton Popov,Антон Попов,Ukraine,73.1,140,-147.5,147.5,,190,200,-205,,347.5,75,Amateur Open,M,BD,Multi-ply,147.5,200,1989
1,Igor Andrusik,Ігор Андрусик,Ukraine,79.4,150,155,162.5,,210,,,,372.5,82.5,Amateur Open,M,BD,Multi-ply,162.5,210,1988
1,Sergiy Kovalov,Сергій Ковальов,Ukraine,92.7,195,202.5,-207.5,,200,212.5,,,415,100,Amateur Open,M,BD,Multi-ply,202.5,212.5,1988
1,Dmitro Zaets,Дмитро Заєць,Ukraine,33.6,35,-37.5,-37.5,,,,,,35,44,Amateur Children 10,M,B,Raw,35,,2002
1,Igor Starchenko,Ігор Старченко,Ukraine,59.5,50,55,57.5,,,,,,57.5,60,Amateur Children 11-12,M,B,Raw,57.5,,2001
1,Mikita Kravets,Микита Кравець,Ukraine,49.2,60,65,-67.5,,,,,,65,52,Amateur Teen 13-15,M,B,Raw,65,,2000
2,Yaroslav Prokopenko,Ярослав Прокопенко,Ukraine,51,-60,60,65,,,,,,65,52,Amateur Teen 13-15,M,B,Raw,65,,1998
1,Vladislav Ponomarenko,Владислав Пономаренко,Ukraine,61.6,77.5,82.5,-87.5,,,,,,82.5,67.5,Amateur Teen 13-15,M,B,Raw,82.5,,1998
1,Konstyantin Artomov,Констянтин Артьомов,Ukraine,69.5,80,-85,85,,,,,,85,75,Amateur Teen 13-15,M,B,Raw,85,,1998
1,Dmitro Badenko,Дмитро Баденко,Ukraine,79.5,75,85,-92.5,,,,,,85,82.5,Amateur Teen 13-15,M,B,Raw,85,,1998
1,Vadim Potekhin,Вадим Потєхін,Ukraine,53.8,80,85,-90,,,,,,85,56,Amateur Teen 16-17,M,B,Raw,85,,1997
2,Sergiy Zabolotniy,Сергій Заболотний,Ukraine,55.6,75,80,-90,,,,,,80,56,Amateur Teen 16-17,M,B,Raw,80,,1997
1,Pavlo Pidtoptaniy,Павло Підтоптаний,Ukraine,59.9,75,85,-90,,,,,,85,60,Amateur Teen 16-17,M,B,Raw,85,,1997
2,Oleg Logvinenko,Олег Логвиненко,Ukraine,57,70,75,-80,,,,,,75,60,Amateur Teen 16-17,M,B,Raw,75,,1995
1,Yaroslav Pushkar,Ярослав Пушкарь,Ukraine,63.7,95,105,-110,,,,,,105,67.5,Amateur Teen 16-17,M,B,Raw,105,,1997
2,Valeriy Martinyuk,Валерій Мартинюк,Ukraine,65.2,90,100,-107.5,,,,,,100,67.5,Amateur Teen 16-17,M,B,Raw,100,,1997
3,Artem Sambura,Артем Самбура,Ukraine,66.3,80,-85,-90,,,,,,80,67.5,Amateur Teen 16-17,M,B,Raw,80,,1996
1,Nazar Pustelnik,Назар Пустельник,Ukraine,73.4,-90,90,-110,,,,,,90,75,Amateur Teen 16-17,M,B,Raw,90,,1995
2,Evgeniy Golub,Євгеній Голуб,Ukraine,71.9,75,82.5,87.5,,,,,,87.5,75,Amateur Teen 16-17,M,B,Raw,87.5,,1996
1,Oleksandr Stetsenko,Олександр Стеценко,Ukraine,80.3,100,105,107.5,,,,,,107.5,82.5,Amateur Teen 16-17,M,B,Raw,107.5,,1996
2,Andriy Trusov,Андрій Трусов,Ukraine,80.3,92.5,-97.5,-97.5,,,,,,92.5,82.5,Amateur Teen 16-17,M,B,Raw,92.5,,1997
DD,Mikita Kornev,Микита Корнєв,Ukraine,89.3,130,-140,-140,,,,,,,90,Amateur Teen 16-17,M,B,Raw,130,,1997
1,Volodimir Serdyuk,Володимир Сердюк,Ukraine,65.9,100,110,-115,,,,,,110,67.5,Amateur Teen 18-19,M,B,Raw,110,,1995
1,Sergiy Dreshpak,Сергій Дрешпак,Ukraine,73.1,125,-130,137.5,,,,,,137.5,75,Amateur Teen 18-19,M,B,Raw,137.5,,1994
2,Sergiy Barishev,Сергій Баришев,Ukraine,72,95,100,105,,,,,,105,75,Amateur Teen 18-19,M,B,Raw,105,,1993
1,Maksim Fanin,Максим Фанін,Ukraine,81.8,125,-132.5,-132.5,,,,,,125,82.5,Amateur Teen 18-19,M,B,Raw,125,,1994
2,Yuriy Mar'Yanovskiy,Юрій Мар'яновський,Ukraine,80.7,120,-127.5,-132.5,,,,,,120,82.5,Amateur Teen 18-19,M,B,Raw,120,,1995
1,Vladislav Skaliy,Владислав Скалій,Ukraine,85.8,-120,120,127.5,,,,,,127.5,90,Amateur Teen 18-19,M,B,Raw,127.5,,1995
1,Pavlo Yushkevich,Павло Юшкевич,Ukraine,51.8,82.5,-92.5,-92.5,,,,,,82.5,52,Amateur Juniors 20-23,M,B,Raw,82.5,,1992
1,Sergiy Sayno,Сергій Сайно,Ukraine,60,95,100,-105,,,,,,100,60,Amateur Juniors 20-23,M,B,Raw,100,,1991
1,Oleksandr Chernets,Олександр Чернець,Ukraine,65.9,140,145,-158,,,,,,145,67.5,Amateur Juniors 20-23,M,B,Raw,145,,1991
2,Maksim Maksachuk,Максим Максачук,Ukraine,66.7,117.5,125,130,,,,,,130,67.5,Amateur Juniors 20-23,M,B,Raw,130,,1992
1,Bogdan Postoenko,Богдан Постоєнко,Ukraine,73,75,82.5,-85,,,,,,82.5,75,Amateur Juniors 20-23,M,B,Raw,82.5,,1991
DQ,Igor Kashinskiy,Ігор Кашинський,Ukraine,74.4,-130,-130,,,,,,,,75,Amateur Juniors 20-23,M,B,Raw,,,1993
1,Valeriy Khorechko,Валерій Хоречко,Ukraine,78.3,160,167.5,172.5,,,,,,172.5,82.5,Amateur Juniors 20-23,M,B,Raw,172.5,,1992
2,Oleksandr Klimenko,Олександр Кліменко,Ukraine,76.1,135,140,145,,,,,,145,82.5,Amateur Juniors 20-23,M,B,Raw,145,,1990
3,Sergiy Marushkin,Сергій Марушкін,Ukraine,81.6,115,-125,-125,,,,,,115,82.5,Amateur Juniors 20-23,M,B,Raw,115,,1992
1,Artem Salnik,Артем Сальник,Ukraine,86.5,100,105,107.5,,,,,,107.5,90,Amateur Juniors 20-23,M,B,Raw,107.5,,1990
1,Oleksandr Varenya,Олександр Вареня,Ukraine,104.4,155,160,-162.5,,,,,,160,110,Amateur Juniors 20-23,M,B,Raw,160,,1990
1,Dmitro Zaets,Дмитро Заєць,Ukraine,33.6,35,-37.5,-37.5,,,,,,35,44,Amateur Open,M,B,Raw,35,,2002
1,Mikita Kravets,Микита Кравець,Ukraine,49.2,60,65,-67.5,,,,,,65,52,Amateur Open,M,B,Raw,65,,2000
1,Oleksiy Kudrin,Олексій Кудрін,Ukraine,59.4,85,-97.5,-97.5,,,,,,85,60,Amateur Open,M,B,Raw,85,,1981
1,Evgen Shevchenko,Євген Шевченко,Ukraine,65.9,100,-110,110,,,,,,110,67.5,Amateur Open,M,B,Raw,110,,1989
1,Igor Bondarev,Ігор Бондарєв,Ukraine,74.7,140,145,-150,,,,,,145,75,Amateur Open,M,B,Raw,145,,1985
2,Stanislav Sheyko,Станислав Шейко,Ukraine,73.9,135,140,-145,,,,,,140,75,Amateur Open,M,B,Raw,140,,1986
3,Volodimir Alokhin,Володимир Альохін,Ukraine,73,130,-137.5,-137.5,,,,,,130,75,Amateur Open,M,B,Raw,130,,1986
DQ,Denis Avramenko,Денис Авраменко,Ukraine,71.4,-125,-125,-125,,,,,,,75,Amateur Open,M,B,Raw,,,1981
1,Valeriy Khorechko,Валерій Хоречко,Ukraine,78.3,160,167.5,172.5,,,,,,172.5,82.5,Amateur Open,M,B,Raw,172.5,,1992
2,Vadim Bilan,Вадим Білан,Ukraine,81.4,145,150,155,,,,,,155,82.5,Amateur Open,M,B,Raw,155,,1987
3,Oleksandr Klimenko,Олександр Кліменко,Ukraine,76.1,135,140,145,,,,,,145,82.5,Amateur Open,M,B,Raw,145,,1990
4,Oleksandr Gladkikh,Олександр Гладких,Ukraine,80.5,125,-132.5,-132.5,,,,,,125,82.5,Amateur Open,M,B,Raw,125,,1989
5,Denis Sharapov,Денис Шарапов,Ukraine,81.7,120,-132.5,-132.5,,,,,,120,82.5,Amateur Open,M,B,Raw,120,,1987
1,Pavlo Churyakov,Павло Чуряков,Ukraine,87.4,150,157.5,160,,,,,,160,90,Amateur Open,M,B,Raw,160,,1983
2,Andriy Vasilenko,Андрій Василенко,Ukraine,87.5,145,150,157.5,,,,,,157.5,90,Amateur Open,M,B,Raw,157.5,,1968
3,Viktor Pivnenko,Віктор Півненко,Ukraine,88.5,-140,140,-150,,,,,,140,90,Amateur Open,M,B,Raw,140,,1981
4,Oleksandr Leonov,Олександр Леонов,Ukraine,84.7,-117.5,117.5,-122.5,,,,,,117.5,90,Amateur Open,M,B,Raw,117.5,,1977
1,Andriy Goncharov,Андрій Гончаров,Ukraine,98.5,160,165,167.5,,,,,,167.5,100,Amateur Open,M,B,Raw,167.5,,1981
2,Stanislav Tron,Станіслав Тронь,Ukraine,99.5,155,162.5,167.5,,,,,,167.5,100,Amateur Open,M,B,Raw,167.5,,1989
DQ,Denis Feklistov,Денис Феклістов,Ukraine,97.3,-140,-140,-140,,,,,,,100,Amateur Open,M,B,Raw,,,1986
1,Oleksandr Gnezdilov,Олександр Гнєздилов,Ukraine,103.2,170,175,-180,,,,,,175,110,Amateur Open,M,B,Raw,175,,1987
2,Oleksiy Kornienko,Олексій Корнієнко,Ukraine,106.5,-155,-155,155,,,,,,155,110,Amateur Open,M,B,Raw,155,,1984
1,Oleksandr Striga,Олександр Стрига,Ukraine,125,200,215,220,223,,,,,220,125,Amateur Open,M,B,Raw,220,,1967
2,Rodion Kuprin,Родіон Купрін,Ukraine,119.5,170,182.5,-185,,,,,,182.5,125,Amateur Open,M,B,Raw,182.5,,1981
1,Vitaliy Stolpak,Виталий Столпак,Ukraine,74.3,127.5,132.5,-137.5,,,,,,132.5,75,Amateur Masters 40-44,M,B,Raw,132.5,,1970
1,Andriy Vasilenko,Андрій Василенко,Ukraine,87.5,145,150,157.5,,,,,,157.5,90,Amateur Masters 40-44,M,B,Raw,157.5,,1968
1,Vladislav Marchenko,Владислав Марченко,Ukraine,107.2,135,-155,155,,,,,,155,110,Amateur Masters 45-49,M,B,Raw,155,,1967
1,Oleksandr Striga,Олександр Стрига,Ukraine,125,200,215,220,223,,,,,220,125,Amateur Masters 45-49,M,B,Raw,220,,1967
1,Mikhaylo Sizikh,Михайло Сізих,Ukraine,80.1,110,115,-117.5,,,,,,115,82.5,Amateur Masters 50-54,M,B,Raw,115,,1962
1,Sergiy Kugachov,Сергій Кугачов,Ukraine,73.8,80,85,-90,,,,,,85,75,Amateur Masters 55-59,M,B,Raw,85,,1955
1,Evgen Zuy,Євген Зуй,Ukraine,66.9,135,-145,-145,,,,,,135,67.5,Amateur Military/Fire/Police,M,B,Raw,135,,1986
1,Bogdan Postoenko,Богдан Постоєнко,Ukraine,73,75,82.5,-85,,,,,,82.5,75,Amateur Military/Fire/Police,M,B,Raw,82.5,,1991
1,Sergiy Marushkin,Сергій Марушкін,Ukraine,81.6,115,-125,-125,,,,,,115,82.5,Amateur Military/Fire/Police,M,B,Raw,115,,1992
1,Alla Smishlyaeva,Алла Смишляєва,Ukraine,59.1,40,47.5,-50,,,,,,47.5,60,Amateur Children 11-12,F,B,Raw,47.5,,2001
1,Yuliya Gamurar,Юлія Гамурар,Ukraine,59.5,57.5,-62.5,-62.5,,,,,,57.5,60,Amateur Teen 13-15,F,B,Raw,57.5,,1998
1,Marina Pargentanyan,Марина Паргентанян,Ukraine,57,45,52.5,-57.5,,,,,,52.5,60,Amateur Teen 16-17,F,B,Raw,52.5,,1997
1,Diana Korobova,Діана Коробова,Ukraine,60,55,57.5,-60,,,,,,57.5,60,Amateur Teen 18-19,F,B,Raw,57.5,,1994
1,Tetyana Stepatska,Тетяна Степацька,Ukraine,44,35,37.5,-40,,,,,,37.5,44,Amateur Juniors 20-23,F,B,Raw,37.5,,1989
1,Marina Zheleznova,Марина Железнова,Ukraine,52.8,32.5,35,-42.5,,,,,,35,56,Amateur Juniors 20-23,F,B,Raw,35,,1990
1,Tamara Korol,Тамара Король,Ukraine,65.2,50,55,-60,,,,,,55,67.5,Amateur Juniors 20-23,F,B,Raw,55,,1989
1,Irina Zadikiyan,Ірина Задікіян,Ukraine,42.6,32.5,-35,-35,,,,,,32.5,44,Amateur Open,F,B,Raw,32.5,,1983
1,Irina Ternova,Ірина Тернова,Ukraine,53,55,-60,-60,,,,,,55,56,Amateur Open,F,B,Raw,55,,1974
DQ,Tetyana Degtyar,Тетяна Дегтяр,Ukraine,54.9,-57.5,-57.5,-57.5,,,,,,,56,Amateur Open,F,B,Raw,,,1987
DQ,Tamara Goncharova,Тамара Гончарова,Ukraine,,,,,,,,,,,56,Amateur Open,F,B,Raw,,,1985
1,Oksana Muzika,Оксана Музика,Ukraine,59.6,60,-65,,,,,,,60,60,Amateur Open,F,B,Raw,60,,1969
2,Yuliya Gamurar,Юлія Гамурар,Ukraine,59.5,57.5,-62.5,-62.5,,,,,,57.5,60,Amateur Open,F,B,Raw,57.5,,1998
3,Irina Kirichenko,Ірина Кириченко,Ukraine,58.8,50,-55,-55,,,,,,50,60,Amateur Open,F,B,Raw,50,,1984
1,Tetyana Dzhevinska,Тетяна Джевінська,Ukraine,73.6,55,-60,-60,,,,,,55,75,Amateur Open,F,B,Raw,55,,1984
1,Oksana Muzika,Оксана Музика,Ukraine,59.6,60,-65,,,,,,,60,60,Amateur Masters 40-44,F,B,Raw,60,,1969
1,Gennadiy Yazev,Геннадій Язєв,Ukraine,88.9,190,-200,-200,,,,,,190,90,Amateur Juniors 20-23,M,B,Multi-ply,190,,1990
1,Sergiy Boryuk,Сергій Борюк,Ukraine,64.7,135,160,-172.5,,,,,,160,67.5,Amateur Open,M,B,Multi-ply,160,,1985
1,Sergiy Kovalov,Сергій Ковальов,Ukraine,92.7,195,202.5,-207.5,,,,,,202.5,100,Amateur Open,M,B,Multi-ply,202.5,,1988
DQ,Denis Kovalov,Денис Ковальов,Ukraine,,,,,,,,,,,100,Amateur Open,M,B,Multi-ply,,,1978
1,Andriy Lomnitskiy,Андрій Ломницький,Ukraine,111.7,255,-260,-260,,,,,,255,125,Amateur Open,M,B,Multi-ply,255,,1980
1,Dmitro Zaets,Дмитро Заєць,Ukraine,33.6,,,,,80,90,-95,,90,44,Amateur Children 10,M,D,Raw,,90,2002
1,Mikita Kravets,Микита Кравець,Ukraine,49.2,,,,,97.5,107.5,110,,110,52,Amateur Teen 13-15,M,D,Raw,,110,2000
1,Vladislav Polivko,Владислав Поливко,Ukraine,92.4,,,,,140,150,160,,160,100,Amateur Teen 13-15,M,D,Raw,,160,1998
1,Vitaliy Muzika,Віталій Музика,Ukraine,66.4,,,,,182.5,190,200,,200,67.5,Amateur Teen 16-17,M,D,Raw,,200,1995
2,Anton Voykov,Антон Войков,Ukraine,66.8,,,,,160,175,,,175,67.5,Amateur Teen 16-17,M,D,Raw,,175,1996
1,Evgeniy Golub,Євгеній Голуб,Ukraine,71.9,,,,,130,145,-157.5,,145,75,Amateur Teen 16-17,M,D,Raw,,145,1996
1,Oleksandr Lushchinskiy,Олександр Лущинський,Ukraine,85.6,,,,,175,185,195,,195,90,Amateur Teen 16-17,M,D,Raw,,195,1996
1,Andriy Karaban,Андрій Карабан,Ukraine,95.1,,,,,-220,-232.5,232.5,,232.5,100,Amateur Teen 16-17,M,D,Raw,,232.5,1997
1,Yaroslav Kalugin,Ярослав Калугін,Ukraine,61,,,,,165,175,-180,,175,67.5,Amateur Teen 18-19,M,D,Raw,,175,1994
2,Maksim Markevich,Максим Маркевич,Ukraine,67.5,,,,,160,-175,-175,,160,67.5,Amateur Teen 18-19,M,D,Raw,,160,1994
1,Oleg Litvinenko,Олег Литвиненко,Ukraine,72.4,,,,,175,185,195,,195,75,Amateur Teen 18-19,M,D,Raw,,195,1995
1,Yuriy Mar'Yanovskiy,Юрій Мар'яновський,Ukraine,80.7,,,,,210,225,232.5,,232.5,82.5,Amateur Teen 18-19,M,D,Raw,,232.5,1995
2,Ivan Tyutyunnik,Іван Тютюнник,Ukraine,81.1,,,,,180,202.5,,,202.5,82.5,Amateur Teen 18-19,M,D,Raw,,202.5,1995
1,Dmitro Gumenyuk,Дмитро Гуменюк,Ukraine,66.1,,,,,170,175,185,,185,67.5,Amateur Juniors 20-23,M,D,Raw,,185,1989
1,Roman Orekhov,Роман Орєхов,Ukraine,81.6,,,,,190,202.5,210,,210,82.5,Amateur Juniors 20-23,M,D,Raw,,210,1992
1,Vladislav Kiba,Владислав Кіба,Ukraine,88.4,,,,,170,185,192.5,,192.5,90,Amateur Juniors 20-23,M,D,Raw,,192.5,1994
2,Andriy Korpusenko,Андрій Корпусенко,Ukraine,87.3,,,,,185,-190,190,,190,90,Amateur Juniors 20-23,M,D,Raw,,190,1991
3,Artem Salnik,Артем Сальник,Ukraine,86.5,,,,,150,160,165,,165,90,Amateur Juniors 20-23,M,D,Raw,,165,1990
1,Andriy Shchetinin,Андрій Щетінін,Ukraine,92.7,,,,,240,260,275,,275,100,Amateur Juniors 20-23,M,D,Raw,,275,1990
1,Dmitro Zaets,Дмитро Заєць,Ukraine,33.6,,,,,80,90,-95,,90,44,Amateur Open,M,D,Raw,,90,2002
1,Mikita Kravets,Микита Кравець,Ukraine,49.2,,,,,97.5,107.5,110,,110,52,Amateur Open,M,D,Raw,,110,2000
1,Vitaliy Muzika,Віталій Музика,Ukraine,66.4,,,,,182.5,190,200,,200,67.5,Amateur Open,M,D,Raw,,200,1995
2,Stanislav Shidlovskiy,Станіслав Шидловський,Ukraine,67.2,,,,,155,175,185,,185,67.5,Amateur Open,M,D,Raw,,185,1984
3,Yaroslav Kalugin,Ярослав Калугін,Ukraine,61,,,,,165,175,-180,,175,67.5,Amateur Open,M,D,Raw,,175,1994
1,Sergiy Koblitskiy,Сергій Коблицький,Ukraine,72.3,,,,,215,240,250,,250,75,Amateur Open,M,D,Raw,,250,1987
1,Yaroslav Litvinenko,Ярослав Литвиненко,Ukraine,81.8,,,,,230,245,-255,,245,82.5,Amateur Open,M,D,Raw,,245,1976
2,Volodimir Kirsa,Володимир Кірса,Ukraine,81,,,,,180,202.5,210,,210,82.5,Amateur Open,M,D,Raw,,210,1986
1,Sergiy Karas,Сергій Карась,Ukraine,87.1,,,,,200,-220,240,,240,90,Amateur Open,M,D,Raw,,240,1986
2,Denis Kovalenko,Денис Коваленко,Ukraine,85,,,,,220,230,-240,,230,90,Amateur Open,M,D,Raw,,230,1982
3,Vadim Kotsaga,Вадим Коцага,Ukraine,88,,,,,190,-205,,,190,90,Amateur Open,M,D,Raw,,190,1977
1,Denis Feklistov,Денис Феклістов,Ukraine,97.3,,,,,190,205,222.5,,222.5,100,Amateur Open,M,D,Raw,,222.5,1986
2,Yuriy Kravchenko,Юрій Кравченко,Ukraine,94.3,,,,,180,197.5,205,,205,100,Amateur Open,M,D,Raw,,205,1986
1,Artem Prisyazhniy,Артем Присяжний,Ukraine,107.2,,,,,260,272.5,280,,280,110,Amateur Open,M,D,Raw,,280,1981
1,Rodion Kuprin,Родіон Купрін,Ukraine,119.5,,,,,230,240,,,240,125,Amateur Open,M,D,Raw,,240,1981
1,Vadim Kotsaga,Вадим Коцага,Ukraine,88,,,,,190,-205,,,190,90,Amateur Submasters 33-39,M,D,Raw,,190,1977
1,Mikhaylo Sizikh,Михайло Сізих,Ukraine,80.1,,,,,130,135,-140,,135,82.5,Amateur Masters 50-54,M,D,Raw,,135,1962
1,Yuriy Khanov,Юрій Ханов,Ukraine,99.7,,,,,200,207.5,222.5,,222.5,100,Amateur Masters 50-54,M,D,Raw,,222.5,1962
1,Igor Dolmatov,Ігор Долматов,Ukraine,97.1,,,,,170,180,190,200,190,100,Amateur Masters 55-59,M,D,Raw,,190,1958
1,Irina Galabir,Ірина Галабір,Ukraine,50.7,,,,,80,90,,,90,52,Amateur Teen 16-17,F,D,Raw,,90,1995
1,Alona Cheban,Альона Чебан,Ukraine,55.8,,,,,100,117.5,120,,120,56,Amateur Juniors 20-23,F,D,Raw,,120,1990
1,Mariya Markovich,Марія Маркович,Ukraine,55.9,,,,,92.5,97.5,105,,105,56,Amateur Open,F,D,Raw,,105,1985
1,Yaroslav Skakunov,Ярослав Скакунов,Ukraine,81.1,,,,,170,180,-200,,180,82.5,Amateur Teen 16-17,M,D,Multi-ply,,180,1995
1,Igor Andrusik,Ігор Андрусик,Ukraine,79.4,,,,,210,,,,210,82.5,Amateur Open,M,D,Multi-ply,,210,1988
