Place,WeightClassKg,Name,Equipment,Team,BodyweightKg,Best3SquatKg,Best3BenchKg,Best3DeadliftKg,TotalKg,Division,Sex,Event
1,75,Bjørn Holte,Wraps,IL Kraftsport,75,160,120,,280,Junior 19-23,M,SB
1,90,Tom Willly Madsen,Wraps,Ski KK,90,150,95,160,405,Junior 19-23,M,SBD
2,90,Torgeir Bøhler,Wraps,Ski KK,90,120,100,150,370,Junior 19-23,M,SBD
1,75,Dag Storset,Wraps,Ski KK,75,170,130,210,510,Open,M,SBD
1,90,Per Åge Madsen,Wraps,Ski KK,85,170,135,220,525,Open,M,SBD
1,110,Johan Kallevik,Wraps,Oslo AK,105,240,150,275,665,Open,M,SBD
